%YAML 1.1
%TAG !u! tag:unity3d.com,2011:
--- !u!74 &7400000
AnimationClip:
  m_ObjectHideFlags: 0
  m_CorrespondingSourceObject: {fileID: 0}
  m_PrefabInstance: {fileID: 0}
  m_PrefabAsset: {fileID: 0}
  m_Name: RollingCoint
  serializedVersion: 6
  m_Legacy: 0
  m_Compressed: 0
  m_UseHighQualityCurve: 1
  m_RotationCurves: []
  m_CompressedRotationCurves: []
  m_EulerCurves: []
  m_PositionCurves: []
  m_ScaleCurves: []
  m_FloatCurves: []
  m_PPtrCurves:
  - curve:
    - time: 0
      value: {fileID: -5678512169640294588, guid: 9ccd8d5de8d5bbd4b827fb2881e498f1,
        type: 3}
    - time: 0.05
      value: {fileID: -3311437503591314278, guid: 9ccd8d5de8d5bbd4b827fb2881e498f1,
        type: 3}
    - time: 0.11666667
      value: {fileID: -1558732491534133438, guid: 9ccd8d5de8d5bbd4b827fb2881e498f1,
        type: 3}
    - time: 0.16666667
      value: {fileID: -1367842023607648389, guid: 9ccd8d5de8d5bbd4b827fb2881e498f1,
        type: 3}
    - time: 0.21666667
      value: {fileID: 8063476955507190704, guid: 9ccd8d5de8d5bbd4b827fb2881e498f1,
        type: 3}
    - time: 0.28333333
      value: {fileID: 4520413852110864251, guid: 9ccd8d5de8d5bbd4b827fb2881e498f1,
        type: 3}
    - time: 0.33333334
      value: {fileID: -4773417196622583352, guid: 9ccd8d5de8d5bbd4b827fb2881e498f1,
        type: 3}
    - time: 0.38333333
      value: {fileID: -8365340832092372190, guid: 9ccd8d5de8d5bbd4b827fb2881e498f1,
        type: 3}
    - time: 0.45
      value: {fileID: 1473346404939042719, guid: 9ccd8d5de8d5bbd4b827fb2881e498f1,
        type: 3}
    - time: 0.5
      value: {fileID: 5992893720081378069, guid: 9ccd8d5de8d5bbd4b827fb2881e498f1,
        type: 3}
    - time: 0.55
      value: {fileID: 8276729213299914824, guid: 9ccd8d5de8d5bbd4b827fb2881e498f1,
        type: 3}
    - time: 0.6166667
      value: {fileID: 7087219508014492419, guid: 9ccd8d5de8d5bbd4b827fb2881e498f1,
        type: 3}
    - time: 0.6666667
      value: {fileID: -1835421944557261716, guid: 9ccd8d5de8d5bbd4b827fb2881e498f1,
        type: 3}
    - time: 0.71666664
      value: {fileID: -7180727909465804862, guid: 9ccd8d5de8d5bbd4b827fb2881e498f1,
        type: 3}
    - time: 0.78333336
      value: {fileID: 6422755829849879339, guid: 9ccd8d5de8d5bbd4b827fb2881e498f1,
        type: 3}
    - time: 0.8333333
      value: {fileID: 5045536076864863615, guid: 9ccd8d5de8d5bbd4b827fb2881e498f1,
        type: 3}
    attribute: m_Sprite
    path: 
    classID: 212
    script: {fileID: 0}
  m_SampleRate: 60
  m_WrapMode: 0
  m_Bounds:
    m_Center: {x: 0, y: 0, z: 0}
    m_Extent: {x: 0, y: 0, z: 0}
  m_ClipBindingConstant:
    genericBindings:
    - serializedVersion: 2
      path: 0
      attribute: 0
      script: {fileID: 0}
      typeID: 212
      customType: 23
      isPPtrCurve: 1
    pptrCurveMapping:
    - {fileID: -5678512169640294588, guid: 9ccd8d5de8d5bbd4b827fb2881e498f1, type: 3}
    - {fileID: -3311437503591314278, guid: 9ccd8d5de8d5bbd4b827fb2881e498f1, type: 3}
    - {fileID: -1558732491534133438, guid: 9ccd8d5de8d5bbd4b827fb2881e498f1, type: 3}
    - {fileID: -1367842023607648389, guid: 9ccd8d5de8d5bbd4b827fb2881e498f1, type: 3}
    - {fileID: 8063476955507190704, guid: 9ccd8d5de8d5bbd4b827fb2881e498f1, type: 3}
    - {fileID: 4520413852110864251, guid: 9ccd8d5de8d5bbd4b827fb2881e498f1, type: 3}
    - {fileID: -4773417196622583352, guid: 9ccd8d5de8d5bbd4b827fb2881e498f1, type: 3}
    - {fileID: -8365340832092372190, guid: 9ccd8d5de8d5bbd4b827fb2881e498f1, type: 3}
    - {fileID: 1473346404939042719, guid: 9ccd8d5de8d5bbd4b827fb2881e498f1, type: 3}
    - {fileID: 5992893720081378069, guid: 9ccd8d5de8d5bbd4b827fb2881e498f1, type: 3}
    - {fileID: 8276729213299914824, guid: 9ccd8d5de8d5bbd4b827fb2881e498f1, type: 3}
    - {fileID: 7087219508014492419, guid: 9ccd8d5de8d5bbd4b827fb2881e498f1, type: 3}
    - {fileID: -1835421944557261716, guid: 9ccd8d5de8d5bbd4b827fb2881e498f1, type: 3}
    - {fileID: -7180727909465804862, guid: 9ccd8d5de8d5bbd4b827fb2881e498f1, type: 3}
    - {fileID: 6422755829849879339, guid: 9ccd8d5de8d5bbd4b827fb2881e498f1, type: 3}
    - {fileID: 5045536076864863615, guid: 9ccd8d5de8d5bbd4b827fb2881e498f1, type: 3}
  m_AnimationClipSettings:
    serializedVersion: 2
    m_AdditiveReferencePoseClip: {fileID: 0}
    m_AdditiveReferencePoseTime: 0
    m_StartTime: 0
    m_StopTime: 0.84999996
    m_OrientationOffsetY: 0
    m_Level: 0
    m_CycleOffset: 0
    m_HasAdditiveReferencePose: 0
    m_LoopTime: 1
    m_LoopBlend: 0
    m_LoopBlendOrientation: 0
    m_LoopBlendPositionY: 0
    m_LoopBlendPositionXZ: 0
    m_KeepOriginalOrientation: 0
    m_KeepOriginalPositionY: 1
    m_KeepOriginalPositionXZ: 0
    m_HeightFromFeet: 0
    m_Mirror: 0
  m_EditorCurves: []
  m_EulerEditorCurves: []
  m_HasGenericRootTransform: 0
  m_HasMotionFloatCurves: 0
  m_Events: []
